Fetch catalog of available data sets. — sal_fetch_catalog • salinasr
…
link character, URL linking to dataset.

    References

    https://cityofsalinas.opendatasoft.com/pages/homepage/

    Examples

library(salinasr)
suppressPackageStartupMessages(library(tidyverse))

catalog <- sal_fetch_catalog()

catalog
#> # A tibble: 100 x 5
#>    title        dataset_id   pub_date            description        link       
#>    <chr>        <chr>        <dttm>              <chr>              <chr>      
#>  1 Sendas para~ bikeways-es  2018-07-27 09:02:02 Esta capa indica ~ http://cit~
#>  2 Salinas Out~ salinas-out~ 2018-07-18 21:24:12 This dataset cont~ http://cit~
#>  3 Eventos de ~ salinas-out~ 2018-07-18 21:24:12 Este conjunto de ~ http://cit~
#>  4 Oficina de ~ bls-smu0641~ 2018-07-05 21:38:36 Este conjunto de ~ http://cit~
#>  5 Bureau of L~ bls-smu0641~ 2018-07-05 21:38:36 This dataset from~ http://cit~
#>  6 Oficina de ~ bls-smu0600~ 2018-07-05 21:28:13 Este conjunto de ~ http://cit~
#>  7 Bureau of L~ bls-smu0600~ 2018-07-05 21:28:13 This dataset from~ http://cit~
#>  8 BETA de hue~ building-fo~ 2018-07-03 18:47:00 Esta es una versi~ http://cit~
#>  9 Building Fo~ building-fo~ 2018-07-03 18:47:00 This is a beta re~ http://cit~
#> 10 Fire Distri~ firedistric~ 2018-07-03 00:04:17 The districts as ~ http://cit~
#> # ... with 90 more rows
…
